Assignment 7: Visualization - Some aspects of ggplot2
…
II. Questions on Covid Vaccination Data

In this section of questions, we will use the covid vaccination data for the US. The data and data dictionary can be found at the below link:

Data

Data Dictionary

library(tidyverse)
df <- read_csv('https://raw.githubusercontent.com/govex/COVID-19/master/data_tables/vaccine_data/us_data/time_series/vaccine_data_us_timeline.csv')

df

## # A tibble: 117,712 x 13
##    Province_State Date       Vaccine_Type  FIPS Country_Region   Lat Long_
##    <chr>          <date>     <chr>        <dbl> <chr>          <dbl> <dbl>
##  1 Alabama        2020-12-10 All              1 US              32.3 -86.9
##  2 Alabama        2020-12-10 Moderna          1 US              32.3 -86.9
##  3 Alabama        2020-12-10 Pfizer           1 US              32.3 -86.9
##  4 Alabama        2020-12-11 All              1 US              32.3 -86.9
##  5 Alabama        2020-12-11 Moderna          1 US              32.3 -86.9
##  6 Alabama        2020-12-11 Pfizer           1 US              32.3 -86.9
##  7 Alabama        2020-12-12 All              1 US              32.3 -86.9
##  8 Alabama        2020-12-12 Moderna          1 US              32.3 -86.9
##  9 Alabama        2020-12-12 Pfizer           1 US              32.3 -86.9
## 10 Alabama        2020-12-13 All              1 US              32.3 -86.9
## # ... with 117,702 more rows, and 6 more variables: Doses_alloc <dbl>,
## #   Doses_shipped <dbl>, Doses_admin <dbl>, Stage_One_Doses <dbl>,
## #   Stage_Two_Doses <dbl>, Combined_Key <chr>
…
