Assignment 6: Visualization - Aesthetic Mapping
…
# Examine the data to pull out the types of variables

titanic_data

## # A tibble: 891 x 12
##    PassengerId Survived Pclass Name   Sex     Age SibSp Parch Ticket  Fare Cabin
##          <dbl>    <dbl>  <dbl> <chr>  <chr> <dbl> <dbl> <dbl> <chr>  <dbl> <chr>
##  1           1        0      3 Braun~ male     22     1     0 A/5 2~  7.25 <NA> 
##  2           2        1      1 Cumin~ fema~    38     1     0 PC 17~ 71.3  C85  
##  3           3        1      3 Heikk~ fema~    26     0     0 STON/~  7.92 <NA> 
##  4           4        1      1 Futre~ fema~    35     1     0 113803 53.1  C123 
##  5           5        0      3 Allen~ male     35     0     0 373450  8.05 <NA> 
##  6           6        0      3 Moran~ male     NA     0     0 330877  8.46 <NA> 
##  7           7        0      1 McCar~ male     54     0     0 17463  51.9  E46  
##  8           8        0      3 Palss~ male      2     3     1 349909 21.1  <NA> 
##  9           9        1      3 Johns~ fema~    27     0     2 347742 11.1  <NA> 
## 10          10        1      2 Nasse~ fema~    14     1     0 237736 30.1  <NA> 
## # ... with 881 more rows, and 1 more variable: Embarked <chr>
…
Questions on Covid Vaccination Data

In this section of questions, we will use the covid vaccination data for the US. The data and data dictionary can be found at the below link:

Data

Data Dictionary

library(tidyverse)
df <- read_csv('https://raw.githubusercontent.com/govex/COVID-19/master/data_tables/vaccine_data/us_data/time_series/vaccine_data_us_timeline.csv')

df

## # A tibble: 107,464 x 13
##    Province_State Date       Vaccine_Type  FIPS Country_Region   Lat Long_
##    <chr>          <date>     <chr>        <dbl> <chr>          <dbl> <dbl>
##  1 Alabama        2020-12-10 All              1 US              32.3 -86.9
##  2 Alabama        2020-12-10 Moderna          1 US              32.3 -86.9
##  3 Alabama        2020-12-10 Pfizer           1 US              32.3 -86.9
##  4 Alabama        2020-12-11 All              1 US              32.3 -86.9
##  5 Alabama        2020-12-11 Moderna          1 US              32.3 -86.9
##  6 Alabama        2020-12-11 Pfizer           1 US              32.3 -86.9
##  7 Alabama        2020-12-12 All              1 US              32.3 -86.9
##  8 Alabama        2020-12-12 Moderna          1 US              32.3 -86.9
##  9 Alabama        2020-12-12 Pfizer           1 US              32.3 -86.9
## 10 Alabama        2020-12-13 All              1 US              32.3 -86.9
## # ... with 107,454 more rows, and 6 more variables: Doses_alloc <dbl>,
## #   Doses_shipped <dbl>, Doses_admin <dbl>, Stage_One_Doses <dbl>,
## #   Stage_Two_Doses <dbl>, Combined_Key <chr>
…
